// Jest Snapshot v1, https://goo.gl/fbAQLP

exports[`EntryPoint Decorator 1`] = `
Object {
  "constructorArgs": Object {},
  "decorators": Object {
    "Contract": Object {
      "flags": Array [],
      "kind": "Contract",
      "name": "Sample",
    },
  },
  "entry_points": Object {
    "ep1": Object {
      "check_no_incoming_transfer": undefined,
      "functionRef": "ep1",
      "kind": "EntryPoint",
      "lazy": true,
      "lazy_no_code": false,
      "mock": false,
      "name": "some_ep",
    },
    "ep2": Object {
      "check_no_incoming_transfer": true,
      "functionRef": "ep2",
      "kind": "EntryPoint",
      "lazy": false,
      "lazy_no_code": true,
      "mock": false,
      "name": "ep2",
    },
    "ep3": Object {
      "check_no_incoming_transfer": undefined,
      "functionRef": "ep3",
      "kind": "EntryPoint",
      "lazy": true,
      "lazy_no_code": false,
      "mock": false,
      "name": "ep3",
    },
  },
  "global_lambdas": Object {},
  "id": 0,
  "line": Object {
    "character": Any<Number>,
    "fileName": Any<String>,
    "line": Any<Number>,
  },
  "metadata": Object {},
  "name": "Sample",
  "scope": Object {
    "addIterator": [Function],
    "classes": Object {},
    "emitStatement": [Function],
    "functions": Object {
      "ep1": Object {
        "decorators": Object {
          "EntryPoint": Object {
            "check_no_incoming_transfer": undefined,
            "functionRef": "ep1",
            "kind": "EntryPoint",
            "lazy": true,
            "lazy_no_code": false,
            "mock": false,
            "name": "some_ep",
          },
        },
        "id": 0,
        "line": Object {
          "character": Any<Number>,
          "fileName": Any<String>,
          "line": Any<Number>,
        },
        "name": "ep1",
        "properties": Object {},
        "scope": Scope {
          "addIterator": [Function],
          "classes": Object {},
          "emitStatement": [Function],
          "functions": Object {},
          "iterators": Object {},
          "kind": "Method",
          "parent": Scope {
            "addIterator": [Function],
            "classes": Object {},
            "emitStatement": [Function],
            "functions": Object {
              "ep1": Object {
                "decorators": Object {
                  "EntryPoint": Object {
                    "check_no_incoming_transfer": undefined,
                    "functionRef": "ep1",
                    "kind": "EntryPoint",
                    "lazy": true,
                    "lazy_no_code": false,
                    "mock": false,
                    "name": "some_ep",
                  },
                },
                "id": 0,
                "line": Object {
                  "character": 13,
                  "fileName": "code.ts",
                  "line": 5,
                },
                "name": "ep1",
                "properties": Object {},
                "scope": [Circular],
                "statements": Object {},
                "type": Object {
                  "inputTypes": Object {},
                  "line": Object {
                    "character": 13,
                    "fileName": "code.ts",
                    "line": 5,
                  },
                  "outputType": Object {
                    "type": "TUnit",
                  },
                  "type": "TFunction",
                },
                "typeDefs": Object {},
                "withOperations": false,
                "withStorage": undefined,
              },
              "ep2": Object {
                "decorators": Object {
                  "EntryPoint": Object {
                    "check_no_incoming_transfer": true,
                    "functionRef": "ep2",
                    "kind": "EntryPoint",
                    "lazy": false,
                    "lazy_no_code": true,
                    "mock": false,
                    "name": "ep2",
                  },
                },
                "id": 1,
                "line": Object {
                  "character": 13,
                  "fileName": "code.ts",
                  "line": 10,
                },
                "name": "ep2",
                "properties": Object {},
                "scope": Scope {
                  "addIterator": [Function],
                  "classes": Object {},
                  "emitStatement": [Function],
                  "functions": Object {},
                  "iterators": Object {},
                  "kind": "Method",
                  "parent": [Circular],
                  "properties": Object {},
                  "removeIterator": [Function],
                  "statements": Array [],
                  "typeDefs": Object {},
                  "varCounter": 0,
                },
                "statements": Object {},
                "type": Object {
                  "inputTypes": Object {},
                  "line": Object {
                    "character": 13,
                    "fileName": "code.ts",
                    "line": 10,
                  },
                  "outputType": Object {
                    "type": "TUnit",
                  },
                  "type": "TFunction",
                },
                "typeDefs": Object {},
                "withOperations": false,
                "withStorage": undefined,
              },
              "ep3": Object {
                "decorators": Object {
                  "EntryPoint": Object {
                    "check_no_incoming_transfer": undefined,
                    "functionRef": "ep3",
                    "kind": "EntryPoint",
                    "lazy": true,
                    "lazy_no_code": false,
                    "mock": false,
                    "name": "ep3",
                  },
                },
                "id": 2,
                "line": Object {
                  "character": 13,
                  "fileName": "code.ts",
                  "line": 15,
                },
                "name": "ep3",
                "properties": Object {},
                "scope": Scope {
                  "addIterator": [Function],
                  "classes": Object {},
                  "emitStatement": [Function],
                  "functions": Object {},
                  "iterators": Object {},
                  "kind": "Method",
                  "parent": [Circular],
                  "properties": Object {},
                  "removeIterator": [Function],
                  "statements": Array [],
                  "typeDefs": Object {},
                  "varCounter": 0,
                },
                "statements": Object {},
                "type": Object {
                  "inputTypes": Object {},
                  "line": Object {
                    "character": 13,
                    "fileName": "code.ts",
                    "line": 15,
                  },
                  "outputType": Object {
                    "type": "TUnit",
                  },
                  "type": "TFunction",
                },
                "typeDefs": Object {},
                "withOperations": false,
                "withStorage": undefined,
              },
            },
            "iterators": Object {},
            "kind": "Class",
            "parent": Scope {
              "addIterator": [Function],
              "classes": Object {
                "Sample": Object {
                  "constructorArgs": Object {},
                  "decorators": Object {
                    "Contract": Object {
                      "flags": Array [],
                      "kind": "Contract",
                      "name": "Sample",
                    },
                  },
                  "entry_points": Object {
                    "ep1": Object {
                      "check_no_incoming_transfer": undefined,
                      "functionRef": "ep1",
                      "kind": "EntryPoint",
                      "lazy": true,
                      "lazy_no_code": false,
                      "mock": false,
                      "name": "some_ep",
                    },
                    "ep2": Object {
                      "check_no_incoming_transfer": true,
                      "functionRef": "ep2",
                      "kind": "EntryPoint",
                      "lazy": false,
                      "lazy_no_code": true,
                      "mock": false,
                      "name": "ep2",
                    },
                    "ep3": Object {
                      "check_no_incoming_transfer": undefined,
                      "functionRef": "ep3",
                      "kind": "EntryPoint",
                      "lazy": true,
                      "lazy_no_code": false,
                      "mock": false,
                      "name": "ep3",
                    },
                  },
                  "global_lambdas": Object {},
                  "id": 0,
                  "line": Object {
                    "character": 9,
                    "fileName": "code.ts",
                    "line": 2,
                  },
                  "metadata": Object {},
                  "name": "Sample",
                  "scope": [Circular],
                  "views": Object {},
                },
              },
              "emitStatement": [Function],
              "functions": Object {},
              "iterators": Object {},
              "kind": "Global",
              "parent": undefined,
              "properties": Object {},
              "removeIterator": [Function],
              "statements": Array [],
              "typeDefs": Object {},
              "varCounter": 0,
            },
            "properties": Object {},
            "removeIterator": [Function],
            "statements": Array [],
            "typeDefs": Object {},
            "varCounter": 0,
          },
          "properties": Object {},
          "removeIterator": [Function],
          "statements": Array [],
          "typeDefs": Object {},
          "varCounter": 0,
        },
        "statements": Object {},
        "type": Object {
          "inputTypes": Object {},
          "line": Object {
            "character": Any<Number>,
            "fileName": Any<String>,
            "line": Any<Number>,
          },
          "outputType": Object {
            "type": "TUnit",
          },
          "type": "TFunction",
        },
        "typeDefs": Object {},
        "withOperations": false,
        "withStorage": undefined,
      },
      "ep2": Object {
        "decorators": Object {
          "EntryPoint": Object {
            "check_no_incoming_transfer": true,
            "functionRef": "ep2",
            "kind": "EntryPoint",
            "lazy": false,
            "lazy_no_code": true,
            "mock": false,
            "name": "ep2",
          },
        },
        "id": 1,
        "line": Object {
          "character": Any<Number>,
          "fileName": Any<String>,
          "line": Any<Number>,
        },
        "name": "ep2",
        "properties": Object {},
        "scope": Scope {
          "addIterator": [Function],
          "classes": Object {},
          "emitStatement": [Function],
          "functions": Object {},
          "iterators": Object {},
          "kind": "Method",
          "parent": Scope {
            "addIterator": [Function],
            "classes": Object {},
            "emitStatement": [Function],
            "functions": Object {
              "ep1": Object {
                "decorators": Object {
                  "EntryPoint": Object {
                    "check_no_incoming_transfer": undefined,
                    "functionRef": "ep1",
                    "kind": "EntryPoint",
                    "lazy": true,
                    "lazy_no_code": false,
                    "mock": false,
                    "name": "some_ep",
                  },
                },
                "id": 0,
                "line": Object {
                  "character": 13,
                  "fileName": "code.ts",
                  "line": 5,
                },
                "name": "ep1",
                "properties": Object {},
                "scope": Scope {
                  "addIterator": [Function],
                  "classes": Object {},
                  "emitStatement": [Function],
                  "functions": Object {},
                  "iterators": Object {},
                  "kind": "Method",
                  "parent": [Circular],
                  "properties": Object {},
                  "removeIterator": [Function],
                  "statements": Array [],
                  "typeDefs": Object {},
                  "varCounter": 0,
                },
                "statements": Object {},
                "type": Object {
                  "inputTypes": Object {},
                  "line": Object {
                    "character": 13,
                    "fileName": "code.ts",
                    "line": 5,
                  },
                  "outputType": Object {
                    "type": "TUnit",
                  },
                  "type": "TFunction",
                },
                "typeDefs": Object {},
                "withOperations": false,
                "withStorage": undefined,
              },
              "ep2": Object {
                "decorators": Object {
                  "EntryPoint": Object {
                    "check_no_incoming_transfer": true,
                    "functionRef": "ep2",
                    "kind": "EntryPoint",
                    "lazy": false,
                    "lazy_no_code": true,
                    "mock": false,
                    "name": "ep2",
                  },
                },
                "id": 1,
                "line": Object {
                  "character": 13,
                  "fileName": "code.ts",
                  "line": 10,
                },
                "name": "ep2",
                "properties": Object {},
                "scope": [Circular],
                "statements": Object {},
                "type": Object {
                  "inputTypes": Object {},
                  "line": Object {
                    "character": 13,
                    "fileName": "code.ts",
                    "line": 10,
                  },
                  "outputType": Object {
                    "type": "TUnit",
                  },
                  "type": "TFunction",
                },
                "typeDefs": Object {},
                "withOperations": false,
                "withStorage": undefined,
              },
              "ep3": Object {
                "decorators": Object {
                  "EntryPoint": Object {
                    "check_no_incoming_transfer": undefined,
                    "functionRef": "ep3",
                    "kind": "EntryPoint",
                    "lazy": true,
                    "lazy_no_code": false,
                    "mock": false,
                    "name": "ep3",
                  },
                },
                "id": 2,
                "line": Object {
                  "character": 13,
                  "fileName": "code.ts",
                  "line": 15,
                },
                "name": "ep3",
                "properties": Object {},
                "scope": Scope {
                  "addIterator": [Function],
                  "classes": Object {},
                  "emitStatement": [Function],
                  "functions": Object {},
                  "iterators": Object {},
                  "kind": "Method",
                  "parent": [Circular],
                  "properties": Object {},
                  "removeIterator": [Function],
                  "statements": Array [],
                  "typeDefs": Object {},
                  "varCounter": 0,
                },
                "statements": Object {},
                "type": Object {
                  "inputTypes": Object {},
                  "line": Object {
                    "character": 13,
                    "fileName": "code.ts",
                    "line": 15,
                  },
                  "outputType": Object {
                    "type": "TUnit",
                  },
                  "type": "TFunction",
                },
                "typeDefs": Object {},
                "withOperations": false,
                "withStorage": undefined,
              },
            },
            "iterators": Object {},
            "kind": "Class",
            "parent": Scope {
              "addIterator": [Function],
              "classes": Object {
                "Sample": Object {
                  "constructorArgs": Object {},
                  "decorators": Object {
                    "Contract": Object {
                      "flags": Array [],
                      "kind": "Contract",
                      "name": "Sample",
                    },
                  },
                  "entry_points": Object {
                    "ep1": Object {
                      "check_no_incoming_transfer": undefined,
                      "functionRef": "ep1",
                      "kind": "EntryPoint",
                      "lazy": true,
                      "lazy_no_code": false,
                      "mock": false,
                      "name": "some_ep",
                    },
                    "ep2": Object {
                      "check_no_incoming_transfer": true,
                      "functionRef": "ep2",
                      "kind": "EntryPoint",
                      "lazy": false,
                      "lazy_no_code": true,
                      "mock": false,
                      "name": "ep2",
                    },
                    "ep3": Object {
                      "check_no_incoming_transfer": undefined,
                      "functionRef": "ep3",
                      "kind": "EntryPoint",
                      "lazy": true,
                      "lazy_no_code": false,
                      "mock": false,
                      "name": "ep3",
                    },
                  },
                  "global_lambdas": Object {},
                  "id": 0,
                  "line": Object {
                    "character": 9,
                    "fileName": "code.ts",
                    "line": 2,
                  },
                  "metadata": Object {},
                  "name": "Sample",
                  "scope": [Circular],
                  "views": Object {},
                },
              },
              "emitStatement": [Function],
              "functions": Object {},
              "iterators": Object {},
              "kind": "Global",
              "parent": undefined,
              "properties": Object {},
              "removeIterator": [Function],
              "statements": Array [],
              "typeDefs": Object {},
              "varCounter": 0,
            },
            "properties": Object {},
            "removeIterator": [Function],
            "statements": Array [],
            "typeDefs": Object {},
            "varCounter": 0,
          },
          "properties": Object {},
          "removeIterator": [Function],
          "statements": Array [],
          "typeDefs": Object {},
          "varCounter": 0,
        },
        "statements": Object {},
        "type": Object {
          "inputTypes": Object {},
          "line": Object {
            "character": Any<Number>,
            "fileName": Any<String>,
            "line": Any<Number>,
          },
          "outputType": Object {
            "type": "TUnit",
          },
          "type": "TFunction",
        },
        "typeDefs": Object {},
        "withOperations": false,
        "withStorage": undefined,
      },
      "ep3": Object {
        "decorators": Object {
          "EntryPoint": Object {
            "check_no_incoming_transfer": undefined,
            "functionRef": "ep3",
            "kind": "EntryPoint",
            "lazy": true,
            "lazy_no_code": false,
            "mock": false,
            "name": "ep3",
          },
        },
        "id": 2,
        "line": Object {
          "character": Any<Number>,
          "fileName": Any<String>,
          "line": Any<Number>,
        },
        "name": "ep3",
        "properties": Object {},
        "scope": Scope {
          "addIterator": [Function],
          "classes": Object {},
          "emitStatement": [Function],
          "functions": Object {},
          "iterators": Object {},
          "kind": "Method",
          "parent": Scope {
            "addIterator": [Function],
            "classes": Object {},
            "emitStatement": [Function],
            "functions": Object {
              "ep1": Object {
                "decorators": Object {
                  "EntryPoint": Object {
                    "check_no_incoming_transfer": undefined,
                    "functionRef": "ep1",
                    "kind": "EntryPoint",
                    "lazy": true,
                    "lazy_no_code": false,
                    "mock": false,
                    "name": "some_ep",
                  },
                },
                "id": 0,
                "line": Object {
                  "character": 13,
                  "fileName": "code.ts",
                  "line": 5,
                },
                "name": "ep1",
                "properties": Object {},
                "scope": Scope {
                  "addIterator": [Function],
                  "classes": Object {},
                  "emitStatement": [Function],
                  "functions": Object {},
                  "iterators": Object {},
                  "kind": "Method",
                  "parent": [Circular],
                  "properties": Object {},
                  "removeIterator": [Function],
                  "statements": Array [],
                  "typeDefs": Object {},
                  "varCounter": 0,
                },
                "statements": Object {},
                "type": Object {
                  "inputTypes": Object {},
                  "line": Object {
                    "character": 13,
                    "fileName": "code.ts",
                    "line": 5,
                  },
                  "outputType": Object {
                    "type": "TUnit",
                  },
                  "type": "TFunction",
                },
                "typeDefs": Object {},
                "withOperations": false,
                "withStorage": undefined,
              },
              "ep2": Object {
                "decorators": Object {
                  "EntryPoint": Object {
                    "check_no_incoming_transfer": true,
                    "functionRef": "ep2",
                    "kind": "EntryPoint",
                    "lazy": false,
                    "lazy_no_code": true,
                    "mock": false,
                    "name": "ep2",
                  },
                },
                "id": 1,
                "line": Object {
                  "character": 13,
                  "fileName": "code.ts",
                  "line": 10,
                },
                "name": "ep2",
                "properties": Object {},
                "scope": Scope {
                  "addIterator": [Function],
                  "classes": Object {},
                  "emitStatement": [Function],
                  "functions": Object {},
                  "iterators": Object {},
                  "kind": "Method",
                  "parent": [Circular],
                  "properties": Object {},
                  "removeIterator": [Function],
                  "statements": Array [],
                  "typeDefs": Object {},
                  "varCounter": 0,
                },
                "statements": Object {},
                "type": Object {
                  "inputTypes": Object {},
                  "line": Object {
                    "character": 13,
                    "fileName": "code.ts",
                    "line": 10,
                  },
                  "outputType": Object {
                    "type": "TUnit",
                  },
                  "type": "TFunction",
                },
                "typeDefs": Object {},
                "withOperations": false,
                "withStorage": undefined,
              },
              "ep3": Object {
                "decorators": Object {
                  "EntryPoint": Object {
                    "check_no_incoming_transfer": undefined,
                    "functionRef": "ep3",
                    "kind": "EntryPoint",
                    "lazy": true,
                    "lazy_no_code": false,
                    "mock": false,
                    "name": "ep3",
                  },
                },
                "id": 2,
                "line": Object {
                  "character": 13,
                  "fileName": "code.ts",
                  "line": 15,
                },
                "name": "ep3",
                "properties": Object {},
                "scope": [Circular],
                "statements": Object {},
                "type": Object {
                  "inputTypes": Object {},
                  "line": Object {
                    "character": 13,
                    "fileName": "code.ts",
                    "line": 15,
                  },
                  "outputType": Object {
                    "type": "TUnit",
                  },
                  "type": "TFunction",
                },
                "typeDefs": Object {},
                "withOperations": false,
                "withStorage": undefined,
              },
            },
            "iterators": Object {},
            "kind": "Class",
            "parent": Scope {
              "addIterator": [Function],
              "classes": Object {
                "Sample": Object {
                  "constructorArgs": Object {},
                  "decorators": Object {
                    "Contract": Object {
                      "flags": Array [],
                      "kind": "Contract",
                      "name": "Sample",
                    },
                  },
                  "entry_points": Object {
                    "ep1": Object {
                      "check_no_incoming_transfer": undefined,
                      "functionRef": "ep1",
                      "kind": "EntryPoint",
                      "lazy": true,
                      "lazy_no_code": false,
                      "mock": false,
                      "name": "some_ep",
                    },
                    "ep2": Object {
                      "check_no_incoming_transfer": true,
                      "functionRef": "ep2",
                      "kind": "EntryPoint",
                      "lazy": false,
                      "lazy_no_code": true,
                      "mock": false,
                      "name": "ep2",
                    },
                    "ep3": Object {
                      "check_no_incoming_transfer": undefined,
                      "functionRef": "ep3",
                      "kind": "EntryPoint",
                      "lazy": true,
                      "lazy_no_code": false,
                      "mock": false,
                      "name": "ep3",
                    },
                  },
                  "global_lambdas": Object {},
                  "id": 0,
                  "line": Object {
                    "character": 9,
                    "fileName": "code.ts",
                    "line": 2,
                  },
                  "metadata": Object {},
                  "name": "Sample",
                  "scope": [Circular],
                  "views": Object {},
                },
              },
              "emitStatement": [Function],
              "functions": Object {},
              "iterators": Object {},
              "kind": "Global",
              "parent": undefined,
              "properties": Object {},
              "removeIterator": [Function],
              "statements": Array [],
              "typeDefs": Object {},
              "varCounter": 0,
            },
            "properties": Object {},
            "removeIterator": [Function],
            "statements": Array [],
            "typeDefs": Object {},
            "varCounter": 0,
          },
          "properties": Object {},
          "removeIterator": [Function],
          "statements": Array [],
          "typeDefs": Object {},
          "varCounter": 0,
        },
        "statements": Object {},
        "type": Object {
          "inputTypes": Object {},
          "line": Object {
            "character": Any<Number>,
            "fileName": Any<String>,
            "line": Any<Number>,
          },
          "outputType": Object {
            "type": "TUnit",
          },
          "type": "TFunction",
        },
        "typeDefs": Object {},
        "withOperations": false,
        "withStorage": undefined,
      },
    },
    "iterators": Object {},
    "kind": "Class",
    "parent": Scope {
      "addIterator": [Function],
      "classes": Object {
        "Sample": Object {
          "constructorArgs": Object {},
          "decorators": Object {
            "Contract": Object {
              "flags": Array [],
              "kind": "Contract",
              "name": "Sample",
            },
          },
          "entry_points": Object {
            "ep1": Object {
              "check_no_incoming_transfer": undefined,
              "functionRef": "ep1",
              "kind": "EntryPoint",
              "lazy": true,
              "lazy_no_code": false,
              "mock": false,
              "name": "some_ep",
            },
            "ep2": Object {
              "check_no_incoming_transfer": true,
              "functionRef": "ep2",
              "kind": "EntryPoint",
              "lazy": false,
              "lazy_no_code": true,
              "mock": false,
              "name": "ep2",
            },
            "ep3": Object {
              "check_no_incoming_transfer": undefined,
              "functionRef": "ep3",
              "kind": "EntryPoint",
              "lazy": true,
              "lazy_no_code": false,
              "mock": false,
              "name": "ep3",
            },
          },
          "global_lambdas": Object {},
          "id": 0,
          "line": Object {
            "character": 9,
            "fileName": "code.ts",
            "line": 2,
          },
          "metadata": Object {},
          "name": "Sample",
          "scope": Scope {
            "addIterator": [Function],
            "classes": Object {},
            "emitStatement": [Function],
            "functions": Object {
              "ep1": Object {
                "decorators": Object {
                  "EntryPoint": Object {
                    "check_no_incoming_transfer": undefined,
                    "functionRef": "ep1",
                    "kind": "EntryPoint",
                    "lazy": true,
                    "lazy_no_code": false,
                    "mock": false,
                    "name": "some_ep",
                  },
                },
                "id": 0,
                "line": Object {
                  "character": 13,
                  "fileName": "code.ts",
                  "line": 5,
                },
                "name": "ep1",
                "properties": Object {},
                "scope": Scope {
                  "addIterator": [Function],
                  "classes": Object {},
                  "emitStatement": [Function],
                  "functions": Object {},
                  "iterators": Object {},
                  "kind": "Method",
                  "parent": [Circular],
                  "properties": Object {},
                  "removeIterator": [Function],
                  "statements": Array [],
                  "typeDefs": Object {},
                  "varCounter": 0,
                },
                "statements": Object {},
                "type": Object {
                  "inputTypes": Object {},
                  "line": Object {
                    "character": 13,
                    "fileName": "code.ts",
                    "line": 5,
                  },
                  "outputType": Object {
                    "type": "TUnit",
                  },
                  "type": "TFunction",
                },
                "typeDefs": Object {},
                "withOperations": false,
                "withStorage": undefined,
              },
              "ep2": Object {
                "decorators": Object {
                  "EntryPoint": Object {
                    "check_no_incoming_transfer": true,
                    "functionRef": "ep2",
                    "kind": "EntryPoint",
                    "lazy": false,
                    "lazy_no_code": true,
                    "mock": false,
                    "name": "ep2",
                  },
                },
                "id": 1,
                "line": Object {
                  "character": 13,
                  "fileName": "code.ts",
                  "line": 10,
                },
                "name": "ep2",
                "properties": Object {},
                "scope": Scope {
                  "addIterator": [Function],
                  "classes": Object {},
                  "emitStatement": [Function],
                  "functions": Object {},
                  "iterators": Object {},
                  "kind": "Method",
                  "parent": [Circular],
                  "properties": Object {},
                  "removeIterator": [Function],
                  "statements": Array [],
                  "typeDefs": Object {},
                  "varCounter": 0,
                },
                "statements": Object {},
                "type": Object {
                  "inputTypes": Object {},
                  "line": Object {
                    "character": 13,
                    "fileName": "code.ts",
                    "line": 10,
                  },
                  "outputType": Object {
                    "type": "TUnit",
                  },
                  "type": "TFunction",
                },
                "typeDefs": Object {},
                "withOperations": false,
                "withStorage": undefined,
              },
              "ep3": Object {
                "decorators": Object {
                  "EntryPoint": Object {
                    "check_no_incoming_transfer": undefined,
                    "functionRef": "ep3",
                    "kind": "EntryPoint",
                    "lazy": true,
                    "lazy_no_code": false,
                    "mock": false,
                    "name": "ep3",
                  },
                },
                "id": 2,
                "line": Object {
                  "character": 13,
                  "fileName": "code.ts",
                  "line": 15,
                },
                "name": "ep3",
                "properties": Object {},
                "scope": Scope {
                  "addIterator": [Function],
                  "classes": Object {},
                  "emitStatement": [Function],
                  "functions": Object {},
                  "iterators": Object {},
                  "kind": "Method",
                  "parent": [Circular],
                  "properties": Object {},
                  "removeIterator": [Function],
                  "statements": Array [],
                  "typeDefs": Object {},
                  "varCounter": 0,
                },
                "statements": Object {},
                "type": Object {
                  "inputTypes": Object {},
                  "line": Object {
                    "character": 13,
                    "fileName": "code.ts",
                    "line": 15,
                  },
                  "outputType": Object {
                    "type": "TUnit",
                  },
                  "type": "TFunction",
                },
                "typeDefs": Object {},
                "withOperations": false,
                "withStorage": undefined,
              },
            },
            "iterators": Object {},
            "kind": "Class",
            "parent": [Circular],
            "properties": Object {},
            "removeIterator": [Function],
            "statements": Array [],
            "typeDefs": Object {},
            "varCounter": 0,
          },
          "views": Object {},
        },
      },
      "emitStatement": [Function],
      "functions": Object {},
      "iterators": Object {},
      "kind": "Global",
      "parent": undefined,
      "properties": Object {},
      "removeIterator": [Function],
      "statements": Array [],
      "typeDefs": Object {},
      "varCounter": 0,
    },
    "properties": Object {},
    "removeIterator": [Function],
    "statements": Array [],
    "typeDefs": Object {},
    "varCounter": 0,
  },
  "views": Object {},
}
`;
