{
    "action": "update",
    "big_map": "40680",
    "key_hash": "expruFhvw81NoH7NnDqeSki3TMYpsmroXMQJWmWmAqJnkwdkdgiviV",
    "key": {
        "bytes": "adf2808aa9deb874c4eda46b9a1a97f6bd59624b32b1264aefb3ab676e29078d"
    },
    "value": {
        "prim": "Pair",
        "args": [
        {
            "prim": "Pair",
            "args": [
            {
                "prim": "False"
            },
            {
                "string": "2534530437295257995434048394182421731962"
            }
            ]
        },
        {
            "prim": "Pair",
            "args": [
            [
                {
                "prim": "Elt",
                "args": [
                    {
                    "bytes": "00001d0c1c01b2dfec703b53d3315102300746c1a648"
                    },
                    {
                    "prim": "Pair",
                    "args": [
                        {
                        "prim": "Pair",
                        "args": [
                            [
                            {
                                "prim": "Elt",
                                "args": [
                                {
                                    "int": "0"
                                },
                                {
                                    "int": "13000000"
                                }
                                ]
                            }
                            ],
                            {
                            "bytes": "00faa09218d028cd4b98ffedacb752831a76d172a0c2bc0e2fd63282e541ef7ad1"
                            }
                        ]
                        },
                        {
                        "prim": "Pair",
                        "args": [
                            {
                            "prim": "Some",
                            "args": [
                                {
                                "prim": "Pair",
                                "args": [
                                    {
                                    "prim": "Pair",
                                    "args": [
                                        [],
                                        []
                                    ]
                                    },
                                    {
                                    "prim": "Pair",
                                    "args": [
                                        {
                                        "int": "1630496823"
                                        },
                                        [
                                        {
                                            "prim": "Elt",
                                            "args": [
                                            {
                                                "int": "0"
                                            },
                                            {
                                                "int": "7"
                                            }
                                            ]
                                        }
                                        ]
                                    ]
                                    }
                                ]
                                }
                            ]
                            },
                            {
                            "int": "4"
                            }
                        ]
                        }
                    ]
                    }
                ]
                },
                {
                "prim": "Elt",
                "args": [
                    {
                    "bytes": "0000e6a9f27dcee72e65fcb39c8dcfb26961f01f41d6"
                    },
                    {
                    "prim": "Pair",
                    "args": [
                        {
                        "prim": "Pair",
                        "args": [
                            [
                            {
                                "prim": "Elt",
                                "args": [
                                {
                                    "int": "0"
                                },
                                {
                                    "int": "12000000"
                                }
                                ]
                            }
                            ],
                            {
                            "bytes": "001c61ecd0030f20afc3c48a616b7697a85aa7140336007205215556b2a76b6526"
                            }
                        ]
                        },
                        {
                        "prim": "Pair",
                        "args": [
                            {
                            "prim": "None"
                            },
                            {
                            "int": "0"
                            }
                        ]
                        }
                    ]
                    }
                ]
                }
            ],
            {
                "int": "600"
            }
            ]
        }
        ]
    }
}
