{
  "action": "update",
  "big_map": "17615",
  "key_hash": "exprttoHV1unw8cWR6uKQE71pbdRYVUaBsUZ1asbA4w46rF6CDnLJM",
  "key": {
    "bytes": "efe7a7a0bbfb3191fcc8415823650c2e6afceaf0b29b0c6a677198afd3171d0c"
  },
  "value": [
    [
      {
        "prim": "Elt",
        "args": [
          {
            "bytes": "00001d0c1c01b2dfec703b53d3315102300746c1a648"
          },
          {
            "int": "1"
          }
        ]
      },
      {
        "prim": "Elt",
        "args": [
          {
            "bytes": "000053dfa44489438013dec3de6e96b47cf6b550c9f8"
          },
          {
            "int": "2"
          }
        ]
      }
    ],
    [
      [
        {
          "prim": "Elt",
          "args": [
            {
              "int": "1"
            },
            [
              {
                "prim": "Elt",
                "args": [
                  {
                    "int": "0"
                  },
                  {
                    "int": "1"
                  }
                ]
              }
            ]
          ]
        },
        {
          "prim": "Elt",
          "args": [
            {
              "int": "2"
            },
            [
              {
                "prim": "Elt",
                "args": [
                  {
                    "int": "0"
                  },
                  {
                    "int": "1"
                  }
                ]
              }
            ]
          ]
        }
      ],
      {
        "bytes": "81d6e2fae5bf2d18dee5e6a17d1ee5b39a8be604726b9b6c868a7ae250799d48"
      },
      {
        "string": "22425146978"
      },
      {
        "bytes": "4261e0508a06644ceb9339d4b85bde0c96f6e14fb0c5c01044d37f477e70b8e3"
      },
      {
        "int": "10"
      },
      [
        {
          "prim": "Elt",
          "args": [
            {
              "int": "1"
            },
            {
              "bytes": "00001d0c1c01b2dfec703b53d3315102300746c1a648"
            }
          ]
        },
        {
          "prim": "Elt",
          "args": [
            {
              "int": "2"
            },
            {
              "bytes": "000053dfa44489438013dec3de6e96b47cf6b550c9f8"
            }
          ]
        }
      ],
      [
        {
          "prim": "Elt",
          "args": [
            {
              "prim": "Left",
              "args": [
                {
                  "string": "player_1_own"
                }
              ]
            },
            [
              {
                "prim": "Pair",
                "args": [
                  [
                    {
                      "prim": "Elt",
                      "args": [
                        {
                          "int": "0"
                        },
                        {
                          "int": "2000000"
                        }
                      ]
                    }
                  ],
                  {
                    "prim": "Pair",
                    "args": [
                      {
                        "int": "1"
                      },
                      {
                        "int": "2"
                      }
                    ]
                  }
                ]
              }
            ]
          ]
        },
        {
          "prim": "Elt",
          "args": [
            {
              "prim": "Right",
              "args": [
                {
                  "prim": "Left",
                  "args": [
                    {
                      "int": "1"
                    }
                  ]
                }
              ]
            },
            [
              {
                "prim": "Pair",
                "args": [
                  [
                    {
                      "prim": "Elt",
                      "args": [
                        {
                          "int": "1"
                        },
                        {
                          "int": "4"
                        }
                      ]
                    }
                  ],
                  {
                    "prim": "Pair",
                    "args": [
                      {
                        "int": "1"
                      },
                      {
                        "int": "2"
                      }
                    ]
                  }
                ]
              }
            ]
          ]
        },
        {
          "prim": "Elt",
          "args": [
            {
              "prim": "Right",
              "args": [
                {
                  "prim": "Left",
                  "args": [
                    {
                      "int": "2"
                    }
                  ]
                }
              ]
            },
            [
              {
                "prim": "Pair",
                "args": [
                  [
                    {
                      "prim": "Elt",
                      "args": [
                        {
                          "int": "1"
                        },
                        {
                          "int": "4"
                        }
                      ]
                    }
                  ],
                  {
                    "prim": "Pair",
                    "args": [
                      {
                        "int": "2"
                      },
                      {
                        "int": "1"
                      }
                    ]
                  }
                ]
              }
            ]
          ]
        }
      ]
    ],
    {
      "prim": "Pair",
      "args": [
        {
          "int": "0"
        },
        {
          "prim": "Pair",
          "args": [
            {
              "prim": "None"
            },
            {
              "int": "1"
            }
          ]
        }
      ]
    },
    {
      "bytes": "05030b"
    },
    [],
    {
      "prim": "False"
    },
    {
      "prim": "None"
    },
    []
  ]
}
